{
    "repo_url": "https://gitlab.com/vmware/idem/idem-gcp.git",
    "plugin_name": "idem-gcp",
    "idem_doc_root_name": "gcp",
    "base_version": "${BASE_SCHEMA_VERSION}",
    "target_version": "${TARGET_SCHEMA_VERSION}",
    "validate_all_resources": "${VALIDATE_ALL_RESOURCES}",
    "resources_to_validate": [
        "gcp.cloudkms.crypto_key",
        "gcp.cloudkms.crypto_key_version",
        "gcp.cloudkms.import_job",
        "gcp.cloudkms.key_ring",
        "gcp.cloudkms.location",
        "gcp.compute.disk",
        "gcp.compute.image",
        "gcp.compute.instance",
        "gcp.compute.machine_image",
        "gcp.compute.network",
        "gcp.compute.node_template",
        "gcp.compute.reservation",
        "gcp.compute.resource_policy",
        "gcp.compute.snapshot",
        "gcp.compute.subnetwork",
        "gcp.storage.bucket"
    ],
    "fail_on_breaking_changes": "${FAIL_ON_BREAKING_CHANGES}"
}
