{
    "repo_url": "https://gitlab.com/vmware/idem/idem-gcp.git",
    "plugin_name": "idem-gcp",
    "idem_doc_root_name": "gcp",
    "base_version": "v0.15.0",
    "target_version": "HEAD",
    "validate_all_resources": "True",
    "resources_to_validate": [],
    "fail_on_breaking_changes": "False"
}
